Introduction to R the Tidy Way
…
</table>

---

## pivot_wider()

```r
gapminder %>% 
  pivot_wider(id_cols = country,
              names_from = year, 
              values_from = lifeExp) 
```

```
## # A tibble: 142 x 13
##    country `1952` `1957` `1962` `1967` `1972` `1977` `1982` `1987` `1992`
##    <fct>    <dbl>  <dbl>  <dbl>  <dbl>  <dbl>  <dbl>  <dbl>  <dbl>  <dbl>
##  1 Afghan~   28.8   30.3   32.0   34.0   36.1   38.4   39.9   40.8   41.7
##  2 Albania   55.2   59.3   64.8   66.2   67.7   68.9   70.4   72     71.6
##  3 Algeria   43.1   45.7   48.3   51.4   54.5   58.0   61.4   65.8   67.7
##  4 Angola    30.0   32.0   34     36.0   37.9   39.5   39.9   39.9   40.6
##  5 Argent~   62.5   64.4   65.1   65.6   67.1   68.5   69.9   70.8   71.9
##  6 Austra~   69.1   70.3   70.9   71.1   71.9   73.5   74.7   76.3   77.6
##  7 Austria   66.8   67.5   69.5   70.1   70.6   72.2   73.2   74.9   76.0
##  8 Bahrain   50.9   53.8   56.9   59.9   63.3   65.6   69.1   70.8   72.6
##  9 Bangla~   37.5   39.3   41.2   43.5   45.3   46.9   50.0   52.8   56.0
## 10 Belgium   68     69.2   70.2   70.9   71.4   72.8   73.9   75.4   76.5
## # ... with 132 more rows, and 3 more variables: `1997` <dbl>,
## #   `2002` <dbl>, `2007` <dbl>
```
…
